{
  "CodeKitInfo" : "This is a CodeKit project configuration file. It is designed to sync project settings across multiple machines. Modifying the contents of this file can be a poor life decision if you don't know what you're doing. This file is not useful unless accompanied by the project that created it in CodeKit. For more information, see: http:\/\/incident57.com\/codekit",
  "creatorBuild" : "8326",
  "files" : {
    "\/foundation\/components\/_panels.scss" : {
      "ignoreWasSetByUser" : 0,
      "ignore" : 0,
      "hidden" : 0,
      "outputPathIsSetByUser" : 0,
      "inputAbbreviatedPath" : "\/foundation\/components\/_panels.scss",
      "outputStyle" : 0,
      "shouldRunBless" : 0,
      "outputAbbreviatedPath" : "\/foundation\/css\/_panels.css",
      "fileType" : 4,
      "debugStyle" : 0
    },
    "\/foundation\/components\/_flex-video.scss" : {
      "ignoreWasSetByUser" : 0,
      "ignore" : 0,
      "hidden" : 0,
      "outputPathIsSetByUser" : 0,
      "inputAbbreviatedPath" : "\/foundation\/components\/_flex-video.scss",
      "outputStyle" : 0,
      "shouldRunBless" : 0,
      "outputAbbreviatedPath" : "\/foundation\/css\/_flex-video.css",
      "fileType" : 4,
      "debugStyle" : 0
    },
    "\/foundation\/components\/_tables.scss" : {
      "ignoreWasSetByUser" : 0,
      "ignore" : 0,
      "hidden" : 0,
      "outputPathIsSetByUser" : 0,
      "inputAbbreviatedPath" : "\/foundation\/components\/_tables.scss",
      "outputStyle" : 0,
      "shouldRunBless" : 0,
      "outputAbbreviatedPath" : "\/foundation\/css\/_tables.css",
      "fileType" : 4,
      "debugStyle" : 0
    },
    "\/img\/apple-touch-icon-144-precomposed.png" : {
      "ignoreWasSetByUser" : 0,
      "ignore" : 0,
      "hidden" : 0,
      "outputPathIsSetByUser" : 0,
      "inputAbbreviatedPath" : "\/img\/apple-touch-icon-144-precomposed.png",
      "processed" : 0,
      "outputAbbreviatedPath" : "\/img\/apple-touch-icon-144-precomposed.png",
      "initialSize" : 16780,
      "fileType" : 8192
    },
    "\/normalize.scss" : {
      "ignoreWasSetByUser" : 0,
      "ignore" : 0,
      "hidden" : 0,
      "outputPathIsSetByUser" : 0,
      "inputAbbreviatedPath" : "\/normalize.scss",
      "outputStyle" : 0,
      "shouldRunBless" : 0,
      "outputAbbreviatedPath" : "\/css\/normalize.css",
      "fileType" : 4,
      "debugStyle" : 0
    },
    "\/gallery.html" : {
      "ignoreWasSetByUser" : 0,
      "ignore" : 0,
      "hidden" : 0,
      "outputPathIsSetByUser" : 0,
      "inputAbbreviatedPath" : "\/gallery.html",
      "outputAbbreviatedPath" : "No Output Path",
      "fileType" : 2048
    },
    "\/js\/foundation\/foundation.tooltips.js" : {
      "ignoreWasSetByUser" : 0,
      "ignore" : 0,
      "hidden" : 0,
      "outputPathIsSetByUser" : 0,
      "inputAbbreviatedPath" : "\/js\/foundation\/foundation.tooltips.js",
      "outputStyle" : 1,
      "syntaxCheckerStyle" : 1,
      "outputAbbreviatedPath" : "\/js\/foundation\/foundation.tooltips-ck.js",
      "fileType" : 64
    },
    "\/foundation\/components\/_dropdown.scss" : {
      "ignoreWasSetByUser" : 0,
      "ignore" : 1,
      "hidden" : 0,
      "outputPathIsSetByUser" : 0,
      "inputAbbreviatedPath" : "\/foundation\/components\/_dropdown.scss",
      "outputStyle" : 0,
      "shouldRunBless" : 0,
      "outputAbbreviatedPath" : "\/foundation\/css\/_dropdown.css",
      "fileType" : 4,
      "debugStyle" : 0
    },
    "\/img\/foto-flower.png" : {
      "ignoreWasSetByUser" : 0,
      "ignore" : 0,
      "hidden" : 0,
      "outputPathIsSetByUser" : 0,
      "inputAbbreviatedPath" : "\/img\/foto-flower.png",
      "processed" : 0,
      "outputAbbreviatedPath" : "\/img\/foto-flower.png",
      "initialSize" : 19475,
      "fileType" : 8192
    },
    "\/img\/Subpage-gallery\/Subpage-gallery-4.jpg" : {
      "ignoreWasSetByUser" : 0,
      "ignore" : 0,
      "hidden" : 0,
      "outputPathIsSetByUser" : 0,
      "inputAbbreviatedPath" : "\/img\/Subpage-gallery\/Subpage-gallery-4.jpg",
      "processed" : 0,
      "outputAbbreviatedPath" : "\/img\/Subpage-gallery\/Subpage-gallery-4.jpg",
      "initialSize" : 14325,
      "fileType" : 4096
    },
    "\/foundation\/components\/_side-nav.scss" : {
      "ignoreWasSetByUser" : 0,
      "ignore" : 1,
      "hidden" : 0,
      "outputPathIsSetByUser" : 0,
      "inputAbbreviatedPath" : "\/foundation\/components\/_side-nav.scss",
      "outputStyle" : 0,
      "shouldRunBless" : 0,
      "outputAbbreviatedPath" : "\/foundation\/css\/_side-nav.css",
      "fileType" : 4,
      "debugStyle" : 0
    },
    "\/js\/foundation\/foundation.section.js" : {
      "ignoreWasSetByUser" : 0,
      "ignore" : 0,
      "hidden" : 0,
      "outputPathIsSetByUser" : 0,
      "inputAbbreviatedPath" : "\/js\/foundation\/foundation.section.js",
      "outputStyle" : 1,
      "syntaxCheckerStyle" : 1,
      "outputAbbreviatedPath" : "\/js\/foundation\/foundation.section-ck.js",
      "fileType" : 64
    },
    "\/js\/jquery.carouFredSel-6.2.1-packed.js" : {
      "ignoreWasSetByUser" : 0,
      "ignore" : 0,
      "hidden" : 0,
      "outputPathIsSetByUser" : 0,
      "inputAbbreviatedPath" : "\/js\/jquery.carouFredSel-6.2.1-packed.js",
      "outputStyle" : 1,
      "syntaxCheckerStyle" : 1,
      "outputAbbreviatedPath" : "\/js\/jquery.carouFredSel-6.2.1-packed-ck.js",
      "fileType" : 64
    },
    "\/foundation.scss" : {
      "ignoreWasSetByUser" : 0,
      "ignore" : 0,
      "hidden" : 0,
      "outputPathIsSetByUser" : 0,
      "inputAbbreviatedPath" : "\/foundation.scss",
      "outputStyle" : 0,
      "shouldRunBless" : 0,
      "outputAbbreviatedPath" : "\/css\/foundation.css",
      "fileType" : 4,
      "debugStyle" : 0
    },
    "\/img\/Subpage-gallery\/Subpage-gallery-1-2.jpg" : {
      "ignoreWasSetByUser" : 0,
      "ignore" : 0,
      "hidden" : 0,
      "outputPathIsSetByUser" : 0,
      "inputAbbreviatedPath" : "\/img\/Subpage-gallery\/Subpage-gallery-1-2.jpg",
      "processed" : 0,
      "outputAbbreviatedPath" : "\/img\/Subpage-gallery\/Subpage-gallery-1-2.jpg",
      "initialSize" : 13834,
      "fileType" : 4096
    },
    "\/foundation\/components\/_block-grid.scss" : {
      "ignoreWasSetByUser" : 0,
      "ignore" : 1,
      "hidden" : 0,
      "outputPathIsSetByUser" : 0,
      "inputAbbreviatedPath" : "\/foundation\/components\/_block-grid.scss",
      "outputStyle" : 0,
      "shouldRunBless" : 0,
      "outputAbbreviatedPath" : "\/foundation\/css\/_block-grid.css",
      "fileType" : 4,
      "debugStyle" : 0
    },
    "\/js\/vendor\/zepto.js" : {
      "ignoreWasSetByUser" : 0,
      "ignore" : 0,
      "hidden" : 0,
      "outputPathIsSetByUser" : 0,
      "inputAbbreviatedPath" : "\/js\/vendor\/zepto.js",
      "outputStyle" : 1,
      "syntaxCheckerStyle" : 1,
      "outputAbbreviatedPath" : "\/js\/vendor\/zepto-ck.js",
      "fileType" : 64
    },
    "\/js\/foundation\/foundation.placeholder.js" : {
      "ignoreWasSetByUser" : 0,
      "ignore" : 0,
      "hidden" : 0,
      "outputPathIsSetByUser" : 0,
      "inputAbbreviatedPath" : "\/js\/foundation\/foundation.placeholder.js",
      "outputStyle" : 1,
      "syntaxCheckerStyle" : 1,
      "outputAbbreviatedPath" : "\/js\/foundation\/foundation.placeholder-ck.js",
      "fileType" : 64
    },
    "\/foundation\/_variables.scss" : {
      "ignoreWasSetByUser" : 0,
      "ignore" : 1,
      "hidden" : 0,
      "outputPathIsSetByUser" : 0,
      "inputAbbreviatedPath" : "\/foundation\/_variables.scss",
      "outputStyle" : 0,
      "shouldRunBless" : 0,
      "outputAbbreviatedPath" : "\/css\/_variables.css",
      "fileType" : 4,
      "debugStyle" : 0
    },
    "\/foundation\/components\/_top-bar.scss" : {
      "ignoreWasSetByUser" : 0,
      "ignore" : 1,
      "hidden" : 0,
      "outputPathIsSetByUser" : 0,
      "inputAbbreviatedPath" : "\/foundation\/components\/_top-bar.scss",
      "outputStyle" : 0,
      "shouldRunBless" : 0,
      "outputAbbreviatedPath" : "\/foundation\/css\/_top-bar.css",
      "fileType" : 4,
      "debugStyle" : 0
    },
    "\/foundation\/components\/_breadcrumbs.scss" : {
      "ignoreWasSetByUser" : 0,
      "ignore" : 0,
      "hidden" : 0,
      "outputPathIsSetByUser" : 0,
      "inputAbbreviatedPath" : "\/foundation\/components\/_breadcrumbs.scss",
      "outputStyle" : 0,
      "shouldRunBless" : 0,
      "outputAbbreviatedPath" : "\/foundation\/css\/_breadcrumbs.css",
      "fileType" : 4,
      "debugStyle" : 0
    },
    "\/js\/foundation\/foundation.abide.js" : {
      "ignoreWasSetByUser" : 0,
      "ignore" : 0,
      "hidden" : 0,
      "outputPathIsSetByUser" : 0,
      "inputAbbreviatedPath" : "\/js\/foundation\/foundation.abide.js",
      "outputStyle" : 1,
      "syntaxCheckerStyle" : 1,
      "outputAbbreviatedPath" : "\/js\/foundation\/foundation.abide-ck.js",
      "fileType" : 64
    },
    "\/js\/foundation\/foundation.joyride.js" : {
      "ignoreWasSetByUser" : 0,
      "ignore" : 0,
      "hidden" : 0,
      "outputPathIsSetByUser" : 0,
      "inputAbbreviatedPath" : "\/js\/foundation\/foundation.joyride.js",
      "outputStyle" : 1,
      "syntaxCheckerStyle" : 1,
      "outputAbbreviatedPath" : "\/js\/foundation\/foundation.joyride-ck.js",
      "fileType" : 64
    },
    "\/foundation\/components\/_type.scss" : {
      "ignoreWasSetByUser" : 0,
      "ignore" : 1,
      "hidden" : 0,
      "outputPathIsSetByUser" : 0,
      "inputAbbreviatedPath" : "\/foundation\/components\/_type.scss",
      "outputStyle" : 0,
      "shouldRunBless" : 0,
      "outputAbbreviatedPath" : "\/foundation\/css\/_type.css",
      "fileType" : 4,
      "debugStyle" : 0
    },
    "\/js\/foundation\/foundation.forms.js" : {
      "ignoreWasSetByUser" : 0,
      "ignore" : 0,
      "hidden" : 0,
      "outputPathIsSetByUser" : 0,
      "inputAbbreviatedPath" : "\/js\/foundation\/foundation.forms.js",
      "outputStyle" : 1,
      "syntaxCheckerStyle" : 1,
      "outputAbbreviatedPath" : "\/js\/foundation\/foundation.forms-ck.js",
      "fileType" : 64
    },
    "\/img\/foto-Lotte.jpg" : {
      "ignoreWasSetByUser" : 0,
      "ignore" : 0,
      "hidden" : 0,
      "outputPathIsSetByUser" : 0,
      "inputAbbreviatedPath" : "\/img\/foto-Lotte.jpg",
      "processed" : 0,
      "outputAbbreviatedPath" : "\/img\/foto-Lotte.jpg",
      "initialSize" : 23119,
      "fileType" : 4096
    },
    "\/img\/foto-Lars.jpg" : {
      "ignoreWasSetByUser" : 0,
      "ignore" : 0,
      "hidden" : 0,
      "outputPathIsSetByUser" : 0,
      "inputAbbreviatedPath" : "\/img\/foto-Lars.jpg",
      "processed" : 0,
      "outputAbbreviatedPath" : "\/img\/foto-Lars.jpg",
      "initialSize" : 24315,
      "fileType" : 4096
    },
    "\/foundation\/components\/_dropdown-buttons.scss" : {
      "ignoreWasSetByUser" : 0,
      "ignore" : 0,
      "hidden" : 0,
      "outputPathIsSetByUser" : 0,
      "inputAbbreviatedPath" : "\/foundation\/components\/_dropdown-buttons.scss",
      "outputStyle" : 0,
      "shouldRunBless" : 0,
      "outputAbbreviatedPath" : "\/foundation\/css\/_dropdown-buttons.css",
      "fileType" : 4,
      "debugStyle" : 0
    },
    "\/foundation\/components\/_visibility.scss" : {
      "ignoreWasSetByUser" : 0,
      "ignore" : 1,
      "hidden" : 0,
      "outputPathIsSetByUser" : 0,
      "inputAbbreviatedPath" : "\/foundation\/components\/_visibility.scss",
      "outputStyle" : 0,
      "shouldRunBless" : 0,
      "outputAbbreviatedPath" : "\/foundation\/css\/_visibility.css",
      "fileType" : 4,
      "debugStyle" : 0
    },
    "\/img\/TOPBILLEDE-3.jpg" : {
      "ignoreWasSetByUser" : 0,
      "ignore" : 0,
      "hidden" : 0,
      "outputPathIsSetByUser" : 0,
      "inputAbbreviatedPath" : "\/img\/TOPBILLEDE-3.jpg",
      "processed" : 0,
      "outputAbbreviatedPath" : "\/img\/TOPBILLEDE-3.jpg",
      "initialSize" : 70632,
      "fileType" : 4096
    },
    "\/foundation\/components\/_pagination.scss" : {
      "ignoreWasSetByUser" : 0,
      "ignore" : 0,
      "hidden" : 0,
      "outputPathIsSetByUser" : 0,
      "inputAbbreviatedPath" : "\/foundation\/components\/_pagination.scss",
      "outputStyle" : 0,
      "shouldRunBless" : 0,
      "outputAbbreviatedPath" : "\/foundation\/css\/_pagination.css",
      "fileType" : 4,
      "debugStyle" : 0
    },
    "\/foundation\/components\/_tooltips.scss" : {
      "ignoreWasSetByUser" : 0,
      "ignore" : 0,
      "hidden" : 0,
      "outputPathIsSetByUser" : 0,
      "inputAbbreviatedPath" : "\/foundation\/components\/_tooltips.scss",
      "outputStyle" : 0,
      "shouldRunBless" : 0,
      "outputAbbreviatedPath" : "\/foundation\/css\/_tooltips.css",
      "fileType" : 4,
      "debugStyle" : 0
    },
    "\/img\/Subpage-gallery\/Subpage-gallery-1-3.jpg" : {
      "ignoreWasSetByUser" : 0,
      "ignore" : 0,
      "hidden" : 0,
      "outputPathIsSetByUser" : 0,
      "inputAbbreviatedPath" : "\/img\/Subpage-gallery\/Subpage-gallery-1-3.jpg",
      "processed" : 0,
      "outputAbbreviatedPath" : "\/img\/Subpage-gallery\/Subpage-gallery-1-3.jpg",
      "initialSize" : 12129,
      "fileType" : 4096
    },
    "\/img\/Subpage-gallery\/Subpage-gallery-3.jpg" : {
      "ignoreWasSetByUser" : 0,
      "ignore" : 0,
      "hidden" : 0,
      "outputPathIsSetByUser" : 0,
      "inputAbbreviatedPath" : "\/img\/Subpage-gallery\/Subpage-gallery-3.jpg",
      "processed" : 0,
      "outputAbbreviatedPath" : "\/img\/Subpage-gallery\/Subpage-gallery-3.jpg",
      "initialSize" : 15352,
      "fileType" : 4096
    },
    "\/foundation\/components\/_progress-bars.scss" : {
      "ignoreWasSetByUser" : 0,
      "ignore" : 0,
      "hidden" : 0,
      "outputPathIsSetByUser" : 0,
      "inputAbbreviatedPath" : "\/foundation\/components\/_progress-bars.scss",
      "outputStyle" : 0,
      "shouldRunBless" : 0,
      "outputAbbreviatedPath" : "\/foundation\/css\/_progress-bars.css",
      "fileType" : 4,
      "debugStyle" : 0
    },
    "\/foundation\/components\/_pricing-tables.scss" : {
      "ignoreWasSetByUser" : 0,
      "ignore" : 0,
      "hidden" : 0,
      "outputPathIsSetByUser" : 0,
      "inputAbbreviatedPath" : "\/foundation\/components\/_pricing-tables.scss",
      "outputStyle" : 0,
      "shouldRunBless" : 0,
      "outputAbbreviatedPath" : "\/foundation\/css\/_pricing-tables.css",
      "fileType" : 4,
      "debugStyle" : 0
    },
    "\/foundation\/components\/_section.scss" : {
      "ignoreWasSetByUser" : 0,
      "ignore" : 0,
      "hidden" : 0,
      "outputPathIsSetByUser" : 0,
      "inputAbbreviatedPath" : "\/foundation\/components\/_section.scss",
      "outputStyle" : 0,
      "shouldRunBless" : 0,
      "outputAbbreviatedPath" : "\/foundation\/css\/_section.css",
      "fileType" : 4,
      "debugStyle" : 0
    },
    "\/foundation\/components\/_buttons.scss" : {
      "ignoreWasSetByUser" : 0,
      "ignore" : 0,
      "hidden" : 0,
      "outputPathIsSetByUser" : 0,
      "inputAbbreviatedPath" : "\/foundation\/components\/_buttons.scss",
      "outputStyle" : 0,
      "shouldRunBless" : 0,
      "outputAbbreviatedPath" : "\/foundation\/css\/_buttons.css",
      "fileType" : 4,
      "debugStyle" : 0
    },
    "\/foundation\/components\/_reveal.scss" : {
      "ignoreWasSetByUser" : 0,
      "ignore" : 0,
      "hidden" : 0,
      "outputPathIsSetByUser" : 0,
      "inputAbbreviatedPath" : "\/foundation\/components\/_reveal.scss",
      "outputStyle" : 0,
      "shouldRunBless" : 0,
      "outputAbbreviatedPath" : "\/foundation\/css\/_reveal.css",
      "fileType" : 4,
      "debugStyle" : 0
    },
    "\/img\/Subpage-gallery\/Fancybox\/slide_9.jpg" : {
      "ignoreWasSetByUser" : 0,
      "ignore" : 0,
      "hidden" : 0,
      "outputPathIsSetByUser" : 0,
      "inputAbbreviatedPath" : "\/img\/Subpage-gallery\/Fancybox\/slide_9.jpg",
      "processed" : 0,
      "outputAbbreviatedPath" : "\/img\/Subpage-gallery\/Fancybox\/slide_9.jpg",
      "initialSize" : 311169,
      "fileType" : 4096
    },
    "\/foundation\/components\/_switch.scss" : {
      "ignoreWasSetByUser" : 0,
      "ignore" : 0,
      "hidden" : 0,
      "outputPathIsSetByUser" : 0,
      "inputAbbreviatedPath" : "\/foundation\/components\/_switch.scss",
      "outputStyle" : 0,
      "shouldRunBless" : 0,
      "outputAbbreviatedPath" : "\/foundation\/css\/_switch.css",
      "fileType" : 4,
      "debugStyle" : 0
    },
    "\/css\/app.css" : {
      "ignoreWasSetByUser" : 0,
      "ignore" : 0,
      "hidden" : 0,
      "outputPathIsSetByUser" : 0,
      "inputAbbreviatedPath" : "\/css\/app.css",
      "outputAbbreviatedPath" : "No Output Path",
      "fileType" : 16
    },
    "\/test.html" : {
      "ignoreWasSetByUser" : 0,
      "ignore" : 0,
      "hidden" : 0,
      "outputPathIsSetByUser" : 0,
      "inputAbbreviatedPath" : "\/test.html",
      "outputAbbreviatedPath" : "No Output Path",
      "fileType" : 2048
    },
    "\/js\/foundation\/foundation.cookie.js" : {
      "ignoreWasSetByUser" : 0,
      "ignore" : 0,
      "hidden" : 0,
      "outputPathIsSetByUser" : 0,
      "inputAbbreviatedPath" : "\/js\/foundation\/foundation.cookie.js",
      "outputStyle" : 1,
      "syntaxCheckerStyle" : 1,
      "outputAbbreviatedPath" : "\/js\/foundation\/foundation.cookie-ck.js",
      "fileType" : 64
    },
    "\/foundation\/components\/_labels.scss" : {
      "ignoreWasSetByUser" : 0,
      "ignore" : 0,
      "hidden" : 0,
      "outputPathIsSetByUser" : 0,
      "inputAbbreviatedPath" : "\/foundation\/components\/_labels.scss",
      "outputStyle" : 0,
      "shouldRunBless" : 0,
      "outputAbbreviatedPath" : "\/foundation\/css\/_labels.css",
      "fileType" : 4,
      "debugStyle" : 0
    },
    "\/img\/Subpage-gallery\/Fancybox\/slide_8.jpg" : {
      "ignoreWasSetByUser" : 0,
      "ignore" : 0,
      "hidden" : 0,
      "outputPathIsSetByUser" : 0,
      "inputAbbreviatedPath" : "\/img\/Subpage-gallery\/Fancybox\/slide_8.jpg",
      "processed" : 0,
      "outputAbbreviatedPath" : "\/img\/Subpage-gallery\/Fancybox\/slide_8.jpg",
      "initialSize" : 176906,
      "fileType" : 4096
    },
    "\/foundation\/components\/_orbit.scss" : {
      "ignoreWasSetByUser" : 0,
      "ignore" : 1,
      "hidden" : 0,
      "outputPathIsSetByUser" : 0,
      "inputAbbreviatedPath" : "\/foundation\/components\/_orbit.scss",
      "outputStyle" : 0,
      "shouldRunBless" : 0,
      "outputAbbreviatedPath" : "\/foundation\/css\/_orbit.css",
      "fileType" : 4,
      "debugStyle" : 0
    },
    "\/foundation\/components\/_grid.scss" : {
      "ignoreWasSetByUser" : 0,
      "ignore" : 1,
      "hidden" : 0,
      "outputPathIsSetByUser" : 0,
      "inputAbbreviatedPath" : "\/foundation\/components\/_grid.scss",
      "outputStyle" : 0,
      "shouldRunBless" : 0,
      "outputAbbreviatedPath" : "\/foundation\/css\/_grid.css",
      "fileType" : 4,
      "debugStyle" : 0
    },
    "\/css\/foundation.css" : {
      "ignoreWasSetByUser" : 0,
      "ignore" : 1,
      "hidden" : 0,
      "outputPathIsSetByUser" : 0,
      "inputAbbreviatedPath" : "\/css\/foundation.css",
      "outputAbbreviatedPath" : "No Output Path",
      "fileType" : 16
    },
    "\/img\/fancybox_sprite.png" : {
      "ignoreWasSetByUser" : 0,
      "ignore" : 0,
      "hidden" : 0,
      "outputPathIsSetByUser" : 0,
      "inputAbbreviatedPath" : "\/img\/fancybox_sprite.png",
      "processed" : 0,
      "outputAbbreviatedPath" : "\/img\/fancybox_sprite.png",
      "initialSize" : 1362,
      "fileType" : 8192
    },
    "\/foundation\/components\/_inline-lists.scss" : {
      "ignoreWasSetByUser" : 0,
      "ignore" : 0,
      "hidden" : 0,
      "outputPathIsSetByUser" : 0,
      "inputAbbreviatedPath" : "\/foundation\/components\/_inline-lists.scss",
      "outputStyle" : 0,
      "shouldRunBless" : 0,
      "outputAbbreviatedPath" : "\/foundation\/css\/_inline-lists.css",
      "fileType" : 4,
      "debugStyle" : 0
    },
    "\/foundation\/components\/_alert-boxes.scss" : {
      "ignoreWasSetByUser" : 0,
      "ignore" : 0,
      "hidden" : 0,
      "outputPathIsSetByUser" : 0,
      "inputAbbreviatedPath" : "\/foundation\/components\/_alert-boxes.scss",
      "outputStyle" : 0,
      "shouldRunBless" : 0,
      "outputAbbreviatedPath" : "\/foundation\/css\/_alert-boxes.css",
      "fileType" : 4,
      "debugStyle" : 0
    },
    "\/index.html" : {
      "ignoreWasSetByUser" : 0,
      "ignore" : 0,
      "hidden" : 0,
      "outputPathIsSetByUser" : 0,
      "inputAbbreviatedPath" : "\/index.html",
      "outputAbbreviatedPath" : "No Output Path",
      "fileType" : 2048
    },
    "\/img\/Subpage-gallery\/Fancybox\/slide_7.jpg" : {
      "ignoreWasSetByUser" : 0,
      "ignore" : 0,
      "hidden" : 0,
      "outputPathIsSetByUser" : 0,
      "inputAbbreviatedPath" : "\/img\/Subpage-gallery\/Fancybox\/slide_7.jpg",
      "processed" : 0,
      "outputAbbreviatedPath" : "\/img\/Subpage-gallery\/Fancybox\/slide_7.jpg",
      "initialSize" : 124409,
      "fileType" : 4096
    },
    "\/img\/Subpage-gallery\/Subpage-gallery-6.jpg" : {
      "ignoreWasSetByUser" : 0,
      "ignore" : 0,
      "hidden" : 0,
      "outputPathIsSetByUser" : 0,
      "inputAbbreviatedPath" : "\/img\/Subpage-gallery\/Subpage-gallery-6.jpg",
      "processed" : 0,
      "outputAbbreviatedPath" : "\/img\/Subpage-gallery\/Subpage-gallery-6.jpg",
      "initialSize" : 16759,
      "fileType" : 4096
    },
    "\/js\/vendor\/custom.modernizr.js" : {
      "ignoreWasSetByUser" : 0,
      "ignore" : 0,
      "hidden" : 0,
      "outputPathIsSetByUser" : 0,
      "inputAbbreviatedPath" : "\/js\/vendor\/custom.modernizr.js",
      "outputStyle" : 1,
      "syntaxCheckerStyle" : 1,
      "outputAbbreviatedPath" : "\/js\/vendor\/custom.modernizr-ck.js",
      "fileType" : 64
    },
    "\/img\/Subpage-gallery\/Fancybox\/slide_6.jpg" : {
      "ignoreWasSetByUser" : 0,
      "ignore" : 0,
      "hidden" : 0,
      "outputPathIsSetByUser" : 0,
      "inputAbbreviatedPath" : "\/img\/Subpage-gallery\/Fancybox\/slide_6.jpg",
      "processed" : 0,
      "outputAbbreviatedPath" : "\/img\/Subpage-gallery\/Fancybox\/slide_6.jpg",
      "initialSize" : 48738,
      "fileType" : 4096
    },
    "\/img\/Subpage-gallery\/Subpage-gallery-1-4.jpg" : {
      "ignoreWasSetByUser" : 0,
      "ignore" : 0,
      "hidden" : 0,
      "outputPathIsSetByUser" : 0,
      "inputAbbreviatedPath" : "\/img\/Subpage-gallery\/Subpage-gallery-1-4.jpg",
      "processed" : 0,
      "outputAbbreviatedPath" : "\/img\/Subpage-gallery\/Subpage-gallery-1-4.jpg",
      "initialSize" : 7168,
      "fileType" : 4096
    },
    "\/img\/logo.png" : {
      "ignoreWasSetByUser" : 0,
      "ignore" : 0,
      "hidden" : 0,
      "outputPathIsSetByUser" : 0,
      "inputAbbreviatedPath" : "\/img\/logo.png",
      "processed" : 0,
      "outputAbbreviatedPath" : "\/img\/logo.png",
      "initialSize" : 4490,
      "fileType" : 8192
    },
    "\/js\/vendor\/jquery.js" : {
      "ignoreWasSetByUser" : 0,
      "ignore" : 0,
      "hidden" : 0,
      "outputPathIsSetByUser" : 0,
      "inputAbbreviatedPath" : "\/js\/vendor\/jquery.js",
      "outputStyle" : 1,
      "syntaxCheckerStyle" : 1,
      "outputAbbreviatedPath" : "\/js\/vendor\/jquery-ck.js",
      "fileType" : 64
    },
    "\/foundation\/components\/_thumbs.scss" : {
      "ignoreWasSetByUser" : 0,
      "ignore" : 1,
      "hidden" : 0,
      "outputPathIsSetByUser" : 0,
      "inputAbbreviatedPath" : "\/foundation\/components\/_thumbs.scss",
      "outputStyle" : 0,
      "shouldRunBless" : 0,
      "outputAbbreviatedPath" : "\/foundation\/css\/_thumbs.css",
      "fileType" : 4,
      "debugStyle" : 0
    },
    "\/img\/Subpage-gallery\/Fancybox\/slide_5.jpg" : {
      "ignoreWasSetByUser" : 0,
      "ignore" : 0,
      "hidden" : 0,
      "outputPathIsSetByUser" : 0,
      "inputAbbreviatedPath" : "\/img\/Subpage-gallery\/Fancybox\/slide_5.jpg",
      "processed" : 0,
      "outputAbbreviatedPath" : "\/img\/Subpage-gallery\/Fancybox\/slide_5.jpg",
      "initialSize" : 8133,
      "fileType" : 4096
    },
    "\/js\/foundation\/foundation.js" : {
      "ignoreWasSetByUser" : 0,
      "ignore" : 0,
      "hidden" : 0,
      "outputPathIsSetByUser" : 0,
      "inputAbbreviatedPath" : "\/js\/foundation\/foundation.js",
      "outputStyle" : 1,
      "syntaxCheckerStyle" : 1,
      "outputAbbreviatedPath" : "\/js\/foundation\/foundation-ck.js",
      "fileType" : 64
    },
    "\/img\/apple-touch-icon-72-precomposed.png" : {
      "ignoreWasSetByUser" : 0,
      "ignore" : 0,
      "hidden" : 0,
      "outputPathIsSetByUser" : 0,
      "inputAbbreviatedPath" : "\/img\/apple-touch-icon-72-precomposed.png",
      "processed" : 0,
      "outputAbbreviatedPath" : "\/img\/apple-touch-icon-72-precomposed.png",
      "initialSize" : 5681,
      "fileType" : 8192
    },
    "\/foundation\/components\/_button-groups.scss" : {
      "ignoreWasSetByUser" : 0,
      "ignore" : 0,
      "hidden" : 0,
      "outputPathIsSetByUser" : 0,
      "inputAbbreviatedPath" : "\/foundation\/components\/_button-groups.scss",
      "outputStyle" : 0,
      "shouldRunBless" : 0,
      "outputAbbreviatedPath" : "\/foundation\/css\/_button-groups.css",
      "fileType" : 4,
      "debugStyle" : 0
    },
    "\/foundation\/components\/_keystrokes.scss" : {
      "ignoreWasSetByUser" : 0,
      "ignore" : 0,
      "hidden" : 0,
      "outputPathIsSetByUser" : 0,
      "inputAbbreviatedPath" : "\/foundation\/components\/_keystrokes.scss",
      "outputStyle" : 0,
      "shouldRunBless" : 0,
      "outputAbbreviatedPath" : "\/foundation\/css\/_keystrokes.css",
      "fileType" : 4,
      "debugStyle" : 0
    },
    "\/img\/Subpage-gallery\/Subpage-gallery-2.jpg" : {
      "ignoreWasSetByUser" : 0,
      "ignore" : 0,
      "hidden" : 0,
      "outputPathIsSetByUser" : 0,
      "inputAbbreviatedPath" : "\/img\/Subpage-gallery\/Subpage-gallery-2.jpg",
      "processed" : 0,
      "outputAbbreviatedPath" : "\/img\/Subpage-gallery\/Subpage-gallery-2.jpg",
      "initialSize" : 15087,
      "fileType" : 4096
    },
    "\/foundation\/components\/_joyride.scss" : {
      "ignoreWasSetByUser" : 0,
      "ignore" : 0,
      "hidden" : 0,
      "outputPathIsSetByUser" : 0,
      "inputAbbreviatedPath" : "\/foundation\/components\/_joyride.scss",
      "outputStyle" : 0,
      "shouldRunBless" : 0,
      "outputAbbreviatedPath" : "\/foundation\/css\/_joyride.css",
      "fileType" : 4,
      "debugStyle" : 0
    },
    "\/js\/foundation\/foundation.reveal.js" : {
      "ignoreWasSetByUser" : 0,
      "ignore" : 0,
      "hidden" : 0,
      "outputPathIsSetByUser" : 0,
      "inputAbbreviatedPath" : "\/js\/foundation\/foundation.reveal.js",
      "outputStyle" : 1,
      "syntaxCheckerStyle" : 1,
      "outputAbbreviatedPath" : "\/js\/foundation\/foundation.reveal-ck.js",
      "fileType" : 64
    },
    "\/css\/normalize.css" : {
      "ignoreWasSetByUser" : 0,
      "ignore" : 1,
      "hidden" : 0,
      "outputPathIsSetByUser" : 0,
      "inputAbbreviatedPath" : "\/css\/normalize.css",
      "outputAbbreviatedPath" : "No Output Path",
      "fileType" : 16
    },
    "\/js\/foundation\/foundation.dropdown.js" : {
      "ignoreWasSetByUser" : 0,
      "ignore" : 0,
      "hidden" : 0,
      "outputPathIsSetByUser" : 0,
      "inputAbbreviatedPath" : "\/js\/foundation\/foundation.dropdown.js",
      "outputStyle" : 1,
      "syntaxCheckerStyle" : 1,
      "outputAbbreviatedPath" : "\/js\/foundation\/foundation.dropdown-ck.js",
      "fileType" : 64
    },
    "\/img\/Subpage-gallery\/Fancybox\/slide_4.jpg" : {
      "ignoreWasSetByUser" : 0,
      "ignore" : 0,
      "hidden" : 0,
      "outputPathIsSetByUser" : 0,
      "inputAbbreviatedPath" : "\/img\/Subpage-gallery\/Fancybox\/slide_4.jpg",
      "processed" : 0,
      "outputAbbreviatedPath" : "\/img\/Subpage-gallery\/Fancybox\/slide_4.jpg",
      "initialSize" : 7373,
      "fileType" : 4096
    },
    "\/js\/foundation\/foundation.orbit.js" : {
      "ignoreWasSetByUser" : 0,
      "ignore" : 0,
      "hidden" : 0,
      "outputPathIsSetByUser" : 0,
      "inputAbbreviatedPath" : "\/js\/foundation\/foundation.orbit.js",
      "outputStyle" : 1,
      "syntaxCheckerStyle" : 1,
      "outputAbbreviatedPath" : "\/js\/foundation\/foundation.orbit-ck.js",
      "fileType" : 64
    },
    "\/js\/foundation\/foundation.interchange.js" : {
      "ignoreWasSetByUser" : 0,
      "ignore" : 0,
      "hidden" : 0,
      "outputPathIsSetByUser" : 0,
      "inputAbbreviatedPath" : "\/js\/foundation\/foundation.interchange.js",
      "outputStyle" : 1,
      "syntaxCheckerStyle" : 1,
      "outputAbbreviatedPath" : "\/js\/foundation\/foundation.interchange-ck.js",
      "fileType" : 64
    },
    "\/img\/Subpage-gallery\/Fancybox\/slide_3.jpg" : {
      "ignoreWasSetByUser" : 0,
      "ignore" : 0,
      "hidden" : 0,
      "outputPathIsSetByUser" : 0,
      "inputAbbreviatedPath" : "\/img\/Subpage-gallery\/Fancybox\/slide_3.jpg",
      "processed" : 0,
      "outputAbbreviatedPath" : "\/img\/Subpage-gallery\/Fancybox\/slide_3.jpg",
      "initialSize" : 293994,
      "fileType" : 4096
    },
    "\/img\/apple-touch-icon-57-precomposed.png" : {
      "ignoreWasSetByUser" : 0,
      "ignore" : 0,
      "hidden" : 0,
      "outputPathIsSetByUser" : 0,
      "inputAbbreviatedPath" : "\/img\/apple-touch-icon-57-precomposed.png",
      "processed" : 0,
      "outputAbbreviatedPath" : "\/img\/apple-touch-icon-57-precomposed.png",
      "initialSize" : 4026,
      "fileType" : 8192
    },
    "\/js\/foundation\/foundation.topbar.js" : {
      "ignoreWasSetByUser" : 0,
      "ignore" : 0,
      "hidden" : 0,
      "outputPathIsSetByUser" : 0,
      "inputAbbreviatedPath" : "\/js\/foundation\/foundation.topbar.js",
      "outputStyle" : 1,
      "syntaxCheckerStyle" : 1,
      "outputAbbreviatedPath" : "\/js\/foundation\/foundation.topbar-ck.js",
      "fileType" : 64
    },
    "\/img\/Subpage-gallery\/Fancybox\/slide_2.jpg" : {
      "ignoreWasSetByUser" : 0,
      "ignore" : 0,
      "hidden" : 0,
      "outputPathIsSetByUser" : 0,
      "inputAbbreviatedPath" : "\/img\/Subpage-gallery\/Fancybox\/slide_2.jpg",
      "processed" : 0,
      "outputAbbreviatedPath" : "\/img\/Subpage-gallery\/Fancybox\/slide_2.jpg",
      "initialSize" : 111148,
      "fileType" : 4096
    },
    "\/foundation\/components\/_custom-forms.scss" : {
      "ignoreWasSetByUser" : 0,
      "ignore" : 0,
      "hidden" : 0,
      "outputPathIsSetByUser" : 0,
      "inputAbbreviatedPath" : "\/foundation\/components\/_custom-forms.scss",
      "outputStyle" : 0,
      "shouldRunBless" : 0,
      "outputAbbreviatedPath" : "\/foundation\/css\/_custom-forms.css",
      "fileType" : 4,
      "debugStyle" : 0
    },
    "\/js\/foundation.min.js" : {
      "ignoreWasSetByUser" : 0,
      "ignore" : 0,
      "hidden" : 0,
      "outputPathIsSetByUser" : 0,
      "inputAbbreviatedPath" : "\/js\/foundation.min.js",
      "outputStyle" : 1,
      "syntaxCheckerStyle" : 1,
      "outputAbbreviatedPath" : "\/js\/foundation.min-ck.js",
      "fileType" : 64
    },
    "\/js\/foundation\/foundation.clearing.js" : {
      "ignoreWasSetByUser" : 0,
      "ignore" : 0,
      "hidden" : 0,
      "outputPathIsSetByUser" : 0,
      "inputAbbreviatedPath" : "\/js\/foundation\/foundation.clearing.js",
      "outputStyle" : 1,
      "syntaxCheckerStyle" : 1,
      "outputAbbreviatedPath" : "\/js\/foundation\/foundation.clearing-ck.js",
      "fileType" : 64
    },
    "\/js\/foundation\/foundation.magellan.js" : {
      "ignoreWasSetByUser" : 0,
      "ignore" : 0,
      "hidden" : 0,
      "outputPathIsSetByUser" : 0,
      "inputAbbreviatedPath" : "\/js\/foundation\/foundation.magellan.js",
      "outputStyle" : 1,
      "syntaxCheckerStyle" : 1,
      "outputAbbreviatedPath" : "\/js\/foundation\/foundation.magellan-ck.js",
      "fileType" : 64
    },
    "\/img\/apple-touch-icon-114-precomposed.png" : {
      "ignoreWasSetByUser" : 0,
      "ignore" : 0,
      "hidden" : 0,
      "outputPathIsSetByUser" : 0,
      "inputAbbreviatedPath" : "\/img\/apple-touch-icon-114-precomposed.png",
      "processed" : 0,
      "outputAbbreviatedPath" : "\/img\/apple-touch-icon-114-precomposed.png",
      "initialSize" : 11392,
      "fileType" : 8192
    },
    "\/img\/border-li.jpg" : {
      "ignoreWasSetByUser" : 0,
      "ignore" : 0,
      "hidden" : 0,
      "outputPathIsSetByUser" : 0,
      "inputAbbreviatedPath" : "\/img\/border-li.jpg",
      "processed" : 0,
      "outputAbbreviatedPath" : "\/img\/border-li.jpg",
      "initialSize" : 7770,
      "fileType" : 4096
    },
    "\/img\/Subpage-gallery\/Fancybox\/slide_10.jpg" : {
      "ignoreWasSetByUser" : 0,
      "ignore" : 0,
      "hidden" : 0,
      "outputPathIsSetByUser" : 0,
      "inputAbbreviatedPath" : "\/img\/Subpage-gallery\/Fancybox\/slide_10.jpg",
      "processed" : 0,
      "outputAbbreviatedPath" : "\/img\/Subpage-gallery\/Fancybox\/slide_10.jpg",
      "initialSize" : 172114,
      "fileType" : 4096
    },
    "\/img\/Subpage-gallery\/Fancybox\/slide_1.jpg" : {
      "ignoreWasSetByUser" : 0,
      "ignore" : 0,
      "hidden" : 0,
      "outputPathIsSetByUser" : 0,
      "inputAbbreviatedPath" : "\/img\/Subpage-gallery\/Fancybox\/slide_1.jpg",
      "processed" : 0,
      "outputAbbreviatedPath" : "\/img\/Subpage-gallery\/Fancybox\/slide_1.jpg",
      "initialSize" : 85489,
      "fileType" : 4096
    },
    "\/foundation\/components\/_grid-5.scss" : {
      "ignoreWasSetByUser" : 0,
      "ignore" : 1,
      "hidden" : 0,
      "outputPathIsSetByUser" : 0,
      "inputAbbreviatedPath" : "\/foundation\/components\/_grid-5.scss",
      "outputStyle" : 0,
      "shouldRunBless" : 0,
      "outputAbbreviatedPath" : "\/foundation\/css\/_grid-5.css",
      "fileType" : 4,
      "debugStyle" : 0
    },
    "\/img\/Subpage-gallery\/Subpage-gallery-5.jpg" : {
      "ignoreWasSetByUser" : 0,
      "ignore" : 0,
      "hidden" : 0,
      "outputPathIsSetByUser" : 0,
      "inputAbbreviatedPath" : "\/img\/Subpage-gallery\/Subpage-gallery-5.jpg",
      "processed" : 0,
      "outputAbbreviatedPath" : "\/img\/Subpage-gallery\/Subpage-gallery-5.jpg",
      "initialSize" : 14901,
      "fileType" : 4096
    },
    "\/img\/TOPBILLEDE.jpg" : {
      "ignoreWasSetByUser" : 0,
      "ignore" : 0,
      "hidden" : 0,
      "outputPathIsSetByUser" : 0,
      "inputAbbreviatedPath" : "\/img\/TOPBILLEDE.jpg",
      "processed" : 0,
      "outputAbbreviatedPath" : "\/img\/TOPBILLEDE.jpg",
      "initialSize" : 58762,
      "fileType" : 4096
    },
    "\/img\/TOPBILLEDE-2.jpg" : {
      "ignoreWasSetByUser" : 0,
      "ignore" : 0,
      "hidden" : 0,
      "outputPathIsSetByUser" : 0,
      "inputAbbreviatedPath" : "\/img\/TOPBILLEDE-2.jpg",
      "processed" : 0,
      "outputAbbreviatedPath" : "\/img\/TOPBILLEDE-2.jpg",
      "initialSize" : 48148,
      "fileType" : 4096
    },
    "\/foundation\/components\/_global.scss" : {
      "ignoreWasSetByUser" : 0,
      "ignore" : 1,
      "hidden" : 0,
      "outputPathIsSetByUser" : 0,
      "inputAbbreviatedPath" : "\/foundation\/components\/_global.scss",
      "outputStyle" : 0,
      "shouldRunBless" : 0,
      "outputAbbreviatedPath" : "\/foundation\/css\/_global.css",
      "fileType" : 4,
      "debugStyle" : 0
    },
    "\/foundation\/components\/_clearing.scss" : {
      "ignoreWasSetByUser" : 0,
      "ignore" : 1,
      "hidden" : 0,
      "outputPathIsSetByUser" : 0,
      "inputAbbreviatedPath" : "\/foundation\/components\/_clearing.scss",
      "outputStyle" : 0,
      "shouldRunBless" : 0,
      "outputAbbreviatedPath" : "\/foundation\/css\/_clearing.css",
      "fileType" : 4,
      "debugStyle" : 0
    },
    "\/subpage.html" : {
      "ignoreWasSetByUser" : 0,
      "ignore" : 0,
      "hidden" : 0,
      "outputPathIsSetByUser" : 0,
      "inputAbbreviatedPath" : "\/subpage.html",
      "outputAbbreviatedPath" : "No Output Path",
      "fileType" : 2048
    },
    "\/img\/favicon (bvesyliv bvesyliv's conflicted copy 2013-08-12).png" : {
      "ignoreWasSetByUser" : 0,
      "ignore" : 0,
      "hidden" : 0,
      "outputPathIsSetByUser" : 0,
      "inputAbbreviatedPath" : "\/img\/favicon (bvesyliv bvesyliv's conflicted copy 2013-08-12).png",
      "processed" : 0,
      "outputAbbreviatedPath" : "\/img\/favicon (bvesyliv bvesyliv's conflicted copy 2013-08-12).png",
      "initialSize" : 2861,
      "fileType" : 8192
    },
    "\/img\/Subpage-gallery\/Subpage-gallery-1.jpg" : {
      "ignoreWasSetByUser" : 0,
      "ignore" : 0,
      "hidden" : 0,
      "outputPathIsSetByUser" : 0,
      "inputAbbreviatedPath" : "\/img\/Subpage-gallery\/Subpage-gallery-1.jpg",
      "processed" : 0,
      "outputAbbreviatedPath" : "\/img\/Subpage-gallery\/Subpage-gallery-1.jpg",
      "initialSize" : 12981,
      "fileType" : 4096
    },
    "\/js\/foundation\/foundation.alerts.js" : {
      "ignoreWasSetByUser" : 0,
      "ignore" : 0,
      "hidden" : 0,
      "outputPathIsSetByUser" : 0,
      "inputAbbreviatedPath" : "\/js\/foundation\/foundation.alerts.js",
      "outputStyle" : 1,
      "syntaxCheckerStyle" : 1,
      "outputAbbreviatedPath" : "\/js\/foundation\/foundation.alerts-ck.js",
      "fileType" : 64
    },
    "\/img\/fancybox_overlay.png" : {
      "ignoreWasSetByUser" : 0,
      "ignore" : 0,
      "hidden" : 0,
      "outputPathIsSetByUser" : 0,
      "inputAbbreviatedPath" : "\/img\/fancybox_overlay.png",
      "processed" : 0,
      "outputAbbreviatedPath" : "\/img\/fancybox_overlay.png",
      "initialSize" : 1003,
      "fileType" : 8192
    },
    "\/img\/Subpage-gallery\/Subpage-gallery-1-1.jpg" : {
      "ignoreWasSetByUser" : 0,
      "ignore" : 0,
      "hidden" : 0,
      "outputPathIsSetByUser" : 0,
      "inputAbbreviatedPath" : "\/img\/Subpage-gallery\/Subpage-gallery-1-1.jpg",
      "processed" : 0,
      "outputAbbreviatedPath" : "\/img\/Subpage-gallery\/Subpage-gallery-1-1.jpg",
      "initialSize" : 15962,
      "fileType" : 4096
    },
    "\/foundation\/components\/_sub-nav.scss" : {
      "ignoreWasSetByUser" : 0,
      "ignore" : 0,
      "hidden" : 0,
      "outputPathIsSetByUser" : 0,
      "inputAbbreviatedPath" : "\/foundation\/components\/_sub-nav.scss",
      "outputStyle" : 0,
      "shouldRunBless" : 0,
      "outputAbbreviatedPath" : "\/foundation\/css\/_sub-nav.css",
      "fileType" : 4,
      "debugStyle" : 0
    },
    "\/foundation\/components\/_magellan.scss" : {
      "ignoreWasSetByUser" : 0,
      "ignore" : 0,
      "hidden" : 0,
      "outputPathIsSetByUser" : 0,
      "inputAbbreviatedPath" : "\/foundation\/components\/_magellan.scss",
      "outputStyle" : 0,
      "shouldRunBless" : 0,
      "outputAbbreviatedPath" : "\/foundation\/css\/_magellan.css",
      "fileType" : 4,
      "debugStyle" : 0
    },
    "\/foundation\/components\/_split-buttons.scss" : {
      "ignoreWasSetByUser" : 0,
      "ignore" : 0,
      "hidden" : 0,
      "outputPathIsSetByUser" : 0,
      "inputAbbreviatedPath" : "\/foundation\/components\/_split-buttons.scss",
      "outputStyle" : 0,
      "shouldRunBless" : 0,
      "outputAbbreviatedPath" : "\/foundation\/css\/_split-buttons.css",
      "fileType" : 4,
      "debugStyle" : 0
    },
    "\/foundation\/components\/_forms.scss" : {
      "ignoreWasSetByUser" : 0,
      "ignore" : 0,
      "hidden" : 0,
      "outputPathIsSetByUser" : 0,
      "inputAbbreviatedPath" : "\/foundation\/components\/_forms.scss",
      "outputStyle" : 0,
      "shouldRunBless" : 0,
      "outputAbbreviatedPath" : "\/foundation\/css\/_forms.css",
      "fileType" : 4,
      "debugStyle" : 0
    }
  },
  "manualImportLinks" : [

  ],
  "projectSettings" : {
    "hamlNoEscapeInAttributes" : 0,
    "kitAutoOutputPathStyle" : 0,
    "lessOutputStyle" : 0,
    "hamlAutoOutputPathReplace2" : "",
    "draggedImportConcatenationStyle" : 1,
    "jadeAutoOutputPathStyle" : 0,
    "hamlEscapeHTMLCharacters" : 0,
    "javascriptAutoOutputPathStyle" : 0,
    "hamlOutputFormat" : 2,
    "stylusAutoOutputPathReplace1" : "stylus",
    "lessStrictImports" : 0,
    "sassAutoOutputPathStyle" : 2,
    "stylusAutoOutputPathReplace2" : "css",
    "lessAutoOutputPathStyle" : 2,
    "lessIECompatibility" : 1,
    "genericWebpageFileExtensionsString" : "html, htm, shtml, shtm, xhtml, php, jsp, asp, aspx, erb, ctp",
    "lessStrictUnits" : 0,
    "lessStrictMath" : 0,
    "coffeeMinifyOutput" : 1,
    "javascriptOutputSuffix" : "-ck",
    "jadeOutputStyle" : 0,
    "coffeeAutoOutputPathStyle" : 0,
    "autoSyncProjectSettingsFile" : 1,
    "lessAutoOutputPathReplace1" : "less",
    "jadeAutoOutputPathReplace1" : "",
    "lessAutoOutputPathRelativePath" : "..\/css",
    "hamlAutoOutputPathRelativePath" : "",
    "jsCheckerReservedNamesString" : "",
    "javascriptOutputStyle" : 1,
    "stylusDebugStyle" : 0,
    "hamlUseCDATA" : 0,
    "hamlAutoOutputPathStyle" : 0,
    "sassDebugStyle" : 0,
    "hamlOutputStyle" : 0,
    "stylusAutoOutputPathRelativePath" : "..\/css",
    "jsCheckerIndent" : 4,
    "kitAutoOutputPathRelativePath" : "",
    "lessAutoOutputPathReplace2" : "css",
    "jadeAutoOutputPathReplace2" : "",
    "shouldRunBless" : 0,
    "stylusAutoOutputPathStyle" : 2,
    "coffeeCheckOutputStyle" : 0,
    "slimOutputStyle" : 1,
    "javascriptSyntaxCheckerStyle" : 1,
    "sassAutoOutputPathReplace1" : "sass",
    "slimAutoOutputPathReplace1" : "",
    "sassOutputStyle" : 0,
    "coffeeAutoOutputPathRelativePath" : "",
    "slimCompileOnly" : 0,
    "slimLogicless" : 0,
    "uglifyIndent" : 4,
    "jadeAutoOutputPathRelativePath" : "",
    "hamlUseUnixNewlines" : 0,
    "hamlAutoOutputPathReplace1" : "",
    "javascriptAutoOutputPathReplace1" : "",
    "stylusOutputStyle" : 0,
    "javascriptAutoOutputPathReplace2" : "",
    "sassAutoOutputPathRelativePath" : "..\/css",
    "coffeeAutoOutputPathReplace1" : "",
    "hamlUseDoubleQuotes" : 0,
    "coffeeAutoOutputPathReplace2" : "",
    "kitAutoOutputPathReplace1" : "",
    "uglifyReservedNamesString" : "",
    "coffeeOutputStyle" : 0,
    "slimAutoOutputPathRelativePath" : "",
    "jsHintFlags" : {
      "latedef" : 1,
      "newcap" : 1,
      "curly" : 1,
      "trailing" : 1,
      "nonew" : 1,
      "es3" : 0,
      "yui" : 0,
      "mootools" : 0,
      "proto" : 0,
      "boss" : 0,
      "funcscope" : 0,
      "jquery" : 1,
      "esnext" : 0,
      "camelcase" : 0,
      "dojo" : 0,
      "strict" : 0,
      "devel" : 0,
      "wsh" : 0,
      "nonstandard" : 0,
      "asi" : 0,
      "moz" : 0,
      "rhino" : 0,
      "smarttabs" : 0,
      "lastsemic" : 0,
      "noempty" : 0,
      "eqnull" : 0,
      "eqeqeq" : 1,
      "couch" : 0,
      "evil" : 0,
      "expr" : 0,
      "immed" : 0,
      "globalstrict" : 0,
      "undef" : 1,
      "iterator" : 0,
      "prototypejs" : 0,
      "noarg" : 1,
      "supernew" : 0,
      "node" : 0,
      "unused" : 1,
      "debug" : 0,
      "bitwise" : 1,
      "white" : 0,
      "browser" : 1,
      "worker" : 0,
      "laxcomma" : 0,
      "multistr" : 0,
      "shadow" : 0,
      "sub" : 0,
      "plusplus" : 0,
      "scripturl" : 0,
      "forin" : 0,
      "loopfunc" : 0,
      "laxbreak" : 0
    },
    "jsLintFlags" : {
      "white" : 0,
      "unparam" : 0,
      "regexp" : 0,
      "nomen" : 0,
      "vars" : 0,
      "sub" : 0,
      "stupid" : 0,
      "continue" : 0,
      "bitwise" : 0,
      "newcap" : 0,
      "sloppy" : 0,
      "closure" : 0,
      "es5" : 0,
      "browser" : 1,
      "properties" : 0,
      "plusplus" : 0,
      "debug" : 0,
      "forin" : 0,
      "eqeq" : 0,
      "evil" : 0,
      "node" : 0,
      "rhino" : 0,
      "ass" : 0,
      "devel" : 0
    },
    "uglifyFlags" : {
      "no-mangle-functions" : 0,
      "no-mangle" : 0,
      "no-copyright" : 0,
      "no-dead-code" : 0,
      "inline-script" : 0,
      "ascii" : 0,
      "mangle-toplevel" : 0,
      "unsafe" : 0,
      "no-seqs" : 1,
      "beautify" : 0,
      "lift-vars" : 0,
      "consolidate-primitive-values" : 0,
      "no-squeeze" : 0
    },
    "sassAutoOutputPathReplace2" : "css",
    "slimAutoOutputPathReplace2" : "",
    "jadeCompileDebug" : 1,
    "slimRailsCompatible" : 0,
    "kitAutoOutputPathReplace2" : "",
    "lessRelativeURLS" : 0,
    "lessDebugStyle" : 0,
    "javascriptAutoOutputPathRelativePath" : "",
    "slimAutoOutputPathStyle" : 0
  },
  "projectAttributes" : {
    "bourbonEnabled" : 0,
    "displayValue" : "foundation-4.3.2",
    "displayValueWasSetByUser" : 0,
    "compassEnabled" : 0
  }
}